aB⸮Nu⸮G⸮⸮⸮kB⸮-⸮G⸮⸮⸮new meas 96 800 turning: 0  stop_vehicle: 0
12:38:30.143 -> GOING FORWARD
12:38:30.178 -> new meas 96 800 turning: 0  stop_vehicle: 0
12:38:30.211 -> GOING FORWARD
12:38:30.245 -> new meas 96 800 turning: 0  stop_vehicle: 0
12:38:30.245 -> GOING FORWARD
12:38:30.315 -> new meas 96 800 turning: 0  stop_vehicle: 0
12:38:30.315 -> GOING FORWARD
12:38:30.384 -> new meas 96 800 turning: 0  stop_vehicle: 0
12:38:30.384 -> GOING FORWARD
12:38:30.419 -> new meas 96 800 turning: 0  stop_vehicle: 0
12:38:30.454 -> GOING FORWARD
12:38:30.489 -> new meas 96 800 turning: 0  stop_vehicle: 0
12:38:30.489 -> GOING FORWARD
12:38:30.559 -> new meas 95 800 turning: 0  stop_vehicle: 0
12:38:30.559 -> GOING FORWARD
12:38:30.629 -> new meas 95 800 turning: 0  stop_vehicle: 0
12:38:30.629 -> GOING FORWARD
12:38:30.663 -> new meas 95 800 turning: 0  stop_vehicle: 0
12:38:30.663 -> GOING FORWARD
12:38:30.732 -> new meas 95 800 turning: 0  stop_vehicle: 0
12:38:30.732 -> GOING FORWARD
12:38:30.802 -> new meas 95 800 turning: 0  stop_vehicle: 0
12:38:30.802 -> GOING FORWARD
12:38:30.837 -> new meas 95 800 turning: 0  stop_vehicle: 0
12:38:30.872 -> GOING FORWARD
12:38:30.907 -> new meas 94 800 turning: 0  stop_vehicle: 0
12:38:30.907 -> GOING FORWARD
12:38:30.977 -> new meas 95 800 turning: 0  stop_vehicle: 0
12:38:30.977 -> GOING FORWARD
12:38:31.047 -> new meas 94 800 turning: 0  stop_vehicle: 0
12:38:31.047 -> GOING FORWARD
12:38:31.082 -> new meas 94 800 turning: 0  stop_vehicle: 0
12:38:31.082 -> GOING FORWARD
12:38:31.152 -> new meas 94 800 turning: 0  stop_vehicle: 0
12:38:31.152 -> GOING FORWARD
12:38:31.222 -> new meas 94 800 turning: 0  stop_vehicle: 0
12:38:31.222 -> GOING FORWARD
12:38:31.257 -> new meas 94 800 turning: 0  stop_vehicle: 0
12:38:31.292 -> GOING FORWARD
12:38:31.327 -> new meas 94 800 turning: 0  stop_vehicle: 0
12:38:31.327 -> GOING FORWARD
12:38:31.397 -> new meas 94 800 turning: 0  stop_vehicle: 0
12:38:31.397 -> GOING FORWARD
12:38:31.467 -> new meas 94 800 turning: 0  stop_vehicle: 0
12:38:31.467 -> GOING FORWARD
12:38:31.502 -> new meas 94 800 turning: 0  stop_vehicle: 0
12:38:31.502 -> GOING FORWARD
12:38:31.571 -> new meas 94 800 turning: 0  stop_vehicle: 0
12:38:31.571 -> GOING FORWARD
12:38:31.641 -> new meas 94 800 turning: 0  stop_vehicle: 0
12:38:31.641 -> GOING FORWARD
12:38:31.675 -> new meas 94 800 turning: 0  stop_vehicle: 0
12:38:31.710 -> GOING FORWARD
12:38:31.745 -> new meas 94 800 turning: 0  stop_vehicle: 0
12:38:31.745 -> GOING FORWARD
12:38:31.815 -> new meas 94 800 turning: 0  stop_vehicle: 0
12:38:31.815 -> GOING FORWARD
12:38:31.885 -> new meas 94 800 turning: 0  stop_vehicle: 0
12:38:31.885 -> GOING FORWARD
12:38:31.920 -> new meas 94 800 turning: 0  stop_vehicle: 0
12:38:31.920 -> GOING FORWARD
12:38:31.989 -> new meas 94 800 turning: 0  stop_vehicle: 0
12:38:31.989 -> GOING FORWARD
12:38:32.059 -> new meas 94 800 turning: 0  stop_vehicle: 0
12:38:32.059 -> GOING FORWARD
12:38:32.129 -> new meas 94 800 turning: 0  stop_vehicle: 0
12:38:32.129 -> GOING FORWARD
12:38:32.163 -> new meas 94 800 turning: 0  stop_vehicle: 0
12:38:32.163 -> GOING FORWARD
12:38:32.233 -> new meas 95 800 turning: 0  stop_vehicle: 0
12:38:32.233 -> GOING FORWARD
12:38:32.302 -> new meas 95 800 turning: 0  stop_vehicle: 0
12:38:32.302 -> GOING FORWARD
12:38:32.371 -> new meas 96 800 turning: 0  stop_vehicle: 0
12:38:32.371 -> GOING FORWARD
12:38:32.406 -> new meas 96 800 turning: 0  stop_vehicle: 0
12:38:32.406 -> GOING FORWARD
12:38:32.476 -> new meas 97 800 turning: 0  stop_vehicle: 0
12:38:32.476 -> GOING FORWARD
12:38:32.545 -> new meas 98 800 turning: 0  stop_vehicle: 0
12:38:32.545 -> GOING FORWARD
12:38:32.579 -> new meas 98 800 turning: 0  stop_vehicle: 0
12:38:32.579 -> GOING FORWARD
12:38:32.648 -> new meas 99 800 turning: 0  stop_vehicle: 0
12:38:32.648 -> GOING FORWARD
12:38:32.717 -> new meas 99 800 turning: 0  stop_vehicle: 0
12:38:32.717 -> GOING FORWARD
12:38:32.787 -> new meas 101 800 turning: 0  stop_vehicle: 0
12:38:32.787 -> GOING FORWARD
12:38:32.822 -> new meas 100 800 turning: 0  stop_vehicle: 0
12:38:32.822 -> GOING FORWARD
12:38:32.892 -> new meas 101 800 turning: 0  stop_vehicle: 0
12:38:32.892 -> GOING FORWARD
12:38:32.961 -> new meas 100 800 turning: 0  stop_vehicle: 0
12:38:32.961 -> GOING FORWARD
12:38:32.996 -> new meas 97 800 turning: 0  stop_vehicle: 0
12:38:33.030 -> GOING FORWARD
12:38:33.064 -> new meas 94 800 turning: 0  stop_vehicle: 0
12:38:33.064 -> GOING FORWARD
12:38:33.134 -> new meas 92 800 turning: 0  stop_vehicle: 0
12:38:33.134 -> GOING FORWARD
12:38:33.204 -> new meas 88 800 turning: 0  stop_vehicle: 0
12:38:33.204 -> GOING FORWARD
12:38:33.239 -> new meas 83 800 turning: 0  stop_vehicle: 0
12:38:33.273 -> GOING FORWARD
12:38:33.308 -> new meas 79 800 turning: 0  stop_vehicle: 0
12:38:33.308 -> GOING FORWARD
12:38:33.378 -> new meas 77 800 turning: 0  stop_vehicle: 0
12:38:33.378 -> GOING FORWARD
12:38:33.447 -> new meas 76 800 turning: 0  stop_vehicle: 0
12:38:33.447 -> GOING FORWARD
12:38:33.482 -> new meas 78 800 turning: 0  stop_vehicle: 0
12:38:33.482 -> GOING FORWARD
12:38:33.552 -> new meas 76 800 turning: 0  stop_vehicle: 0
12:38:33.552 -> GOING FORWARD
12:38:33.621 -> new meas 79 800 turning: 0  stop_vehicle: 0
12:38:33.621 -> GOING FORWARD
12:38:33.656 -> new meas 79 800 turning: 0  stop_vehicle: 0
12:38:33.690 -> GOING FORWARD
12:38:33.725 -> new meas 80 800 turning: 0  stop_vehicle: 0
12:38:33.725 -> GOING FORWARD
12:38:33.795 -> new meas 81 800 turning: 0  stop_vehicle: 0
12:38:33.795 -> GOING FORWARD
12:38:33.865 -> new meas 82 800 turning: 0  stop_vehicle: 0
12:38:33.865 -> GOING FORWARD
12:38:33.900 -> new meas 84 800 turning: 0  stop_vehicle: 0
12:38:33.935 -> GOING FORWARD
12:38:33.970 -> new meas 83 800 turning: 0  stop_vehicle: 0
12:38:33.970 -> GOING FORWARD
12:38:34.051 -> new meas 82 800 turning: 0  stop_vehicle: 0
12:38:34.051 -> GOING FORWARD
12:38:34.086 -> new meas 82 800 turning: 0  stop_vehicle: 0
12:38:34.086 -> GOING FORWARD
12:38:34.156 -> new meas 82 800 turning: 0  stop_vehicle: 0
12:38:34.156 -> GOING FORWARD
12:38:34.226 -> new meas 82 800 turning: 0  stop_vehicle: 0
12:38:34.226 -> GOING FORWARD
12:38:34.261 -> new meas 81 800 turning: 0  stop_vehicle: 0
12:38:34.296 -> GOING FORWARD
12:38:34.331 -> new meas 81 800 turning: 0  stop_vehicle: 0
12:38:34.331 -> GOING FORWARD
12:38:34.401 -> new meas 81 800 turning: 0  stop_vehicle: 0
12:38:34.401 -> GOING FORWARD
12:38:34.471 -> new meas 82 800 turning: 0  stop_vehicle: 0
12:38:34.471 -> GOING FORWARD
12:38:34.506 -> new meas 81 800 turning: 0  stop_vehicle: 0
12:38:34.506 -> GOING FORWARD
12:38:34.576 -> new meas 81 800 turning: 0  stop_vehicle: 0
12:38:34.576 -> GOING FORWARD
12:38:34.926 -> new meas 81 800 turning: 0  stop_vehicle: 0
12:38:34.926 -> GOING FORWARD
12:38:34.926 -> new meas 81 800 turning: 0  stop_vehicle: 0
12:38:34.926 -> GOING FORWARD
12:38:34.926 -> new meas 81 800 turning: 0  stop_vehicle: 0
12:38:34.926 -> GOING FORWARD
12:38:34.926 -> new meas 81 800 turning: 0  stop_vehicle: 0
12:38:34.926 -> GOING FORWARD
12:38:34.926 -> new meas 81 800 turning: 0  stop_vehicle: 0
12:38:34.926 -> GOING FORWARD
12:38:34.926 -> new meas 81 800 turning: 0  stop_vehicle: 0
12:38:34.926 -> GOING FORWARD
12:38:34.995 -> new meas 81 800 turning: 0  stop_vehicle: 0
12:38:34.995 -> GOING FORWARD
12:38:35.065 -> new meas 80 800 turning: 0  stop_vehicle: 0
12:38:35.065 -> GOING FORWARD
12:38:35.100 -> new meas 81 800 turning: 0  stop_vehicle: 0
12:38:35.135 -> GOING FORWARD
12:38:35.170 -> new meas 81 800 turning: 0  stop_vehicle: 0
12:38:35.170 -> GOING FORWARD
12:38:35.240 -> new meas 81 800 turning: 0  stop_vehicle: 0
12:38:35.240 -> GOING FORWARD
12:38:35.310 -> new meas 82 800 turning: 0  stop_vehicle: 0
12:38:35.310 -> GOING FORWARD
12:38:35.345 -> new meas 82 800 turning: 0  stop_vehicle: 0
12:38:35.345 -> GOING FORWARD
12:38:35.414 -> new meas 83 800 turning: 0  stop_vehicle: 0
12:38:35.414 -> GOING FORWARD
12:38:35.484 -> new meas 82 800 turning: 0  stop_vehicle: 0
12:38:35.484 -> GOING FORWARD
12:38:35.519 -> new meas 82 800 turning: 0  stop_vehicle: 0
12:38:35.519 -> GOING FORWARD
12:38:35.589 -> new meas 82 800 turning: 0  stop_vehicle: 0
12:38:35.589 -> GOING FORWARD
12:38:35.659 -> new meas 83 800 turning: 0  stop_vehicle: 0
12:38:35.659 -> GOING FORWARD
12:38:35.729 -> new meas 83 800 turning: 0  stop_vehicle: 0
12:38:35.729 -> GOING FORWARD
12:38:35.764 -> new meas 83 800 turning: 0  stop_vehicle: 0
12:38:35.764 -> GOING FORWARD
12:38:35.834 -> new meas 83 800 turning: 0  stop_vehicle: 0
12:38:35.834 -> GOING FORWARD
12:38:35.904 -> new meas 83 800 turning: 0  stop_vehicle: 0
12:38:35.904 -> GOING FORWARD
12:38:35.939 -> new meas 84 800 turning: 0  stop_vehicle: 0
12:38:35.974 -> GOING FORWARD
12:38:36.009 -> new meas 84 800 turning: 0  stop_vehicle: 0
12:38:36.009 -> GOING FORWARD
12:38:36.079 -> new meas 84 800 turning: 0  stop_vehicle: 0
12:38:36.079 -> GOING FORWARD
12:38:36.149 -> new meas 84 800 turning: 0  stop_vehicle: 0
12:38:36.149 -> GOING FORWARD
12:38:36.184 -> new meas 85 800 turning: 0  stop_vehicle: 0
12:38:36.184 -> GOING FORWARD
12:38:36.254 -> new meas 85 800 turning: 0  stop_vehicle: 0
12:38:36.254 -> GOING FORWARD
12:38:36.324 -> new meas 85 800 turning: 0  stop_vehicle: 0
12:38:36.324 -> GOING FORWARD
12:38:36.359 -> new meas 85 800 turning: 0  stop_vehicle: 0
12:38:36.394 -> GOING FORWARD
12:38:36.429 -> new meas 85 800 turning: 0  stop_vehicle: 0
12:38:36.429 -> GOING FORWARD
12:38:36.499 -> new meas 85 800 turning: 0  stop_vehicle: 0
12:38:36.499 -> GOING FORWARD
12:38:36.569 -> new meas 86 800 turning: 0  stop_vehicle: 0
12:38:36.569 -> GOING FORWARD
12:38:36.604 -> new meas 87 800 turning: 0  stop_vehicle: 0
12:38:36.604 -> GOING FORWARD
12:38:36.674 -> new meas 87 800 turning: 0  stop_vehicle: 0
12:38:36.674 -> GOING FORWARD
12:38:36.744 -> new meas 87 800 turning: 0  stop_vehicle: 0
12:38:36.744 -> GOING FORWARD
12:38:36.779 -> new meas 88 800 turning: 0  stop_vehicle: 0
12:38:36.814 -> GOING FORWARD
12:38:36.849 -> new meas 88 800 turning: 0  stop_vehicle: 0
12:38:36.849 -> GOING FORWARD
12:38:36.919 -> new meas 88 800 turning: 0  stop_vehicle: 0
12:38:36.919 -> GOING FORWARD
12:38:36.989 -> new meas 89 800 turning: 0  stop_vehicle: 0
12:38:36.989 -> GOING FORWARD
12:38:37.024 -> new meas 89 800 turning: 0  stop_vehicle: 0
12:38:37.024 -> GOING FORWARD
12:38:37.094 -> new meas 89 800 turning: 0  stop_vehicle: 0
12:38:37.094 -> GOING FORWARD
12:38:37.163 -> new meas 90 800 turning: 0  stop_vehicle: 0
12:38:37.163 -> GOING FORWARD
12:38:37.198 -> new meas 90 800 turning: 0  stop_vehicle: 0
12:38:37.233 -> GOING FORWARD
12:38:37.268 -> new meas 90 800 turning: 0  stop_vehicle: 0
12:38:37.268 -> GOING FORWARD
12:38:37.338 -> new meas 90 800 turning: 0  stop_vehicle: 0
12:38:37.338 -> GOING FORWARD
12:38:37.408 -> new meas 90 800 turning: 0  stop_vehicle: 0
12:38:37.408 -> GOING FORWARD
12:38:37.443 -> new meas 90 800 turning: 0  stop_vehicle: 0
12:38:37.443 -> GOING FORWARD
12:38:37.513 -> new meas 90 800 turning: 0  stop_vehicle: 0
12:38:37.513 -> GOING FORWARD
12:38:37.583 -> new meas 90 800 turning: 0  stop_vehicle: 0
12:38:37.583 -> GOING FORWARD
12:38:37.618 -> new meas 90 800 turning: 0  stop_vehicle: 0
12:38:37.653 -> GOING FORWARD
12:38:37.688 -> new meas 90 800 turning: 0  stop_vehicle: 0
12:38:37.688 -> GOING FORWARD
12:38:37.758 -> new meas 90 800 turning: 0  stop_vehicle: 0
12:38:37.758 -> GOING FORWARD
12:38:37.828 -> new meas 90 800 turning: 0  stop_vehicle: 0
12:38:37.828 -> GOING FORWARD
12:38:37.863 -> new meas 90 800 turning: 0  stop_vehicle: 0
12:38:37.863 -> GOING FORWARD
12:38:37.933 -> new meas 90 800 turning: 0  stop_vehicle: 0
12:38:37.933 -> GOING FORWARD
12:38:38.003 -> new meas 90 800 turning: 0  stop_vehicle: 0
12:38:38.003 -> GOING FORWARD
12:38:38.038 -> new meas 90 800 turning: 0  stop_vehicle: 0
12:38:38.073 -> GOING FORWARD
12:38:38.108 -> new meas 90 800 turning: 0  stop_vehicle: 0
12:38:38.108 -> GOING FORWARD
12:38:38.178 -> new meas 90 800 turning: 0  stop_vehicle: 0
12:38:38.178 -> GOING FORWARD
12:38:38.248 -> new meas 91 800 turning: 0  stop_vehicle: 0
12:38:38.248 -> GOING FORWARD
12:38:38.283 -> new meas 90 800 turning: 0  stop_vehicle: 0
12:38:38.318 -> GOING FORWARD
12:38:38.353 -> new meas 90 800 turning: 0  stop_vehicle: 0
12:38:38.353 -> GOING FORWARD
12:38:38.423 -> new meas 90 800 turning: 0  stop_vehicle: 0
12:38:38.423 -> GOING FORWARD
12:38:38.458 -> new meas 90 800 turning: 0  stop_vehicle: 0
12:38:38.493 -> GOING FORWARD
12:38:38.528 -> new meas 90 800 turning: 0  stop_vehicle: 0
12:38:38.528 -> GOING FORWARD
12:38:38.598 -> new meas 90 800 turning: 0  stop_vehicle: 0
12:38:38.598 -> GOING FORWARD
12:38:38.665 -> new meas 90 800 turning: 0  stop_vehicle: 0
12:38:38.665 -> GOING FORWARD
12:38:38.699 -> new meas 90 800 turning: 0  stop_vehicle: 0
12:38:38.733 -> GOING FORWARD
12:38:38.768 -> new meas 90 800 turning: 0  stop_vehicle: 0
12:38:38.768 -> GOING FORWARD
12:38:38.838 -> new meas 90 800 turning: 0  stop_vehicle: 0
12:38:38.838 -> GOING FORWARD
12:38:38.907 -> new meas 90 800 turning: 0  stop_vehicle: 0
12:38:38.907 -> GOING FORWARD
12:38:38.942 -> new meas 90 800 turning: 0  stop_vehicle: 0
12:38:38.977 -> GOING FORWARD
12:38:39.010 -> new meas 90 800 turning: 0  stop_vehicle: 0
12:38:39.010 -> GOING FORWARD
12:38:39.078 -> new meas 89 800 turning: 0  stop_vehicle: 0
12:38:39.078 -> GOING FORWARD
12:38:39.146 -> new meas 89 800 turning: 0  stop_vehicle: 0
12:38:39.146 -> GOING FORWARD
12:38:39.181 -> new meas 89 800 turning: 0  stop_vehicle: 0
12:38:39.181 -> GOING FORWARD
12:38:39.250 -> new meas 88 800 turning: 0  stop_vehicle: 0
12:38:39.250 -> GOING FORWARD
12:38:39.320 -> new meas 88 800 turning: 0  stop_vehicle: 0
12:38:39.320 -> GOING FORWARD
12:38:39.390 -> new meas 88 800 turning: 0  stop_vehicle: 0
12:38:39.390 -> GOING FORWARD
12:38:39.424 -> new meas 87 800 turning: 0  stop_vehicle: 0
12:38:39.424 -> GOING FORWARD
12:38:39.494 -> new meas 87 800 turning: 0  stop_vehicle: 0
12:38:39.494 -> GOING FORWARD
12:38:39.564 -> new meas 87 800 turning: 0  stop_vehicle: 0
12:38:39.564 -> GOING FORWARD
12:38:39.599 -> new meas 86 800 turning: 0  stop_vehicle: 0
12:38:39.634 -> GOING FORWARD
12:38:39.669 -> new meas 86 800 turning: 0  stop_vehicle: 0
12:38:39.669 -> GOING FORWARD
12:38:39.739 -> new meas 86 800 turning: 0  stop_vehicle: 0
12:38:39.739 -> GOING FORWARD
12:38:39.808 -> new meas 86 800 turning: 0  stop_vehicle: 0
12:38:39.808 -> GOING FORWARD
12:38:39.843 -> new meas 86 800 turning: 0  stop_vehicle: 0
12:38:39.843 -> GOING FORWARD
12:38:39.912 -> new meas 86 800 turning: 0  stop_vehicle: 0
12:38:39.912 -> GOING FORWARD
12:38:39.982 -> new meas 86 800 turning: 0  stop_vehicle: 0
12:38:39.982 -> GOING FORWARD
12:38:40.017 -> new meas 86 800 turning: 0  stop_vehicle: 0
12:38:40.052 -> GOING FORWARD
12:38:40.087 -> new meas 87 800 turning: 0  stop_vehicle: 0
12:38:40.087 -> GOING FORWARD
12:38:40.157 -> new meas 87 800 turning: 0  stop_vehicle: 0
12:38:40.157 -> GOING FORWARD
12:38:40.227 -> new meas 88 800 turning: 0  stop_vehicle: 0
12:38:40.227 -> GOING FORWARD
12:38:40.261 -> new meas 88 800 turning: 0  stop_vehicle: 0
12:38:40.296 -> GOING FORWARD
12:38:40.331 -> new meas 88 800 turning: 0  stop_vehicle: 0
12:38:40.331 -> GOING FORWARD
12:38:40.400 -> new meas 89 800 turning: 0  stop_vehicle: 0
12:38:40.400 -> GOING FORWARD
12:38:40.470 -> new meas 89 800 turning: 0  stop_vehicle: 0
12:38:40.470 -> GOING FORWARD
12:38:40.505 -> new meas 89 800 turning: 0  stop_vehicle: 0
12:38:40.505 -> GOING FORWARD
12:38:40.575 -> new meas 89 800 turning: 0  stop_vehicle: 0
12:38:40.575 -> GOING FORWARD
12:38:40.644 -> new meas 88 800 turning: 0  stop_vehicle: 0
12:38:40.644 -> GOING FORWARD
12:38:40.679 -> new meas 88 800 turning: 0  stop_vehicle: 0
12:38:40.714 -> GOING FORWARD
12:38:40.749 -> new meas 89 800 turning: 0  stop_vehicle: 0
12:38:40.749 -> GOING FORWARD
12:38:40.819 -> new meas 88 800 turning: 0  stop_vehicle: 0
12:38:40.819 -> GOING FORWARD
12:38:40.889 -> new meas 88 800 turning: 0  stop_vehicle: 0
12:38:40.889 -> GOING FORWARD
12:38:40.924 -> new meas 88 800 turning: 0  stop_vehicle: 0
12:38:40.924 -> GOING FORWARD
12:38:40.994 -> new meas 88 800 turning: 0  stop_vehicle: 0
12:38:40.994 -> GOING FORWARD
12:38:41.064 -> new meas 88 800 turning: 0  stop_vehicle: 0
12:38:41.064 -> GOING FORWARD
12:38:41.099 -> new meas 88 800 turning: 0  stop_vehicle: 0
12:38:41.134 -> GOING FORWARD
12:38:41.169 -> new meas 88 800 turning: 0  stop_vehicle: 0
12:38:41.169 -> GOING FORWARD
12:38:41.239 -> new meas 88 800 turning: 0  stop_vehicle: 0
12:38:41.239 -> GOING FORWARD
12:38:41.309 -> new meas 88 800 turning: 0  stop_vehicle: 0
12:38:41.309 -> GOING FORWARD
12:38:41.344 -> new meas 88 800 turning: 0  stop_vehicle: 0
12:38:41.344 -> GOING FORWARD
12:38:41.414 -> new meas 88 800 turning: 0  stop_vehicle: 0
12:38:41.414 -> GOING FORWARD
12:38:41.484 -> new meas 88 800 turning: 0  stop_vehicle: 0
12:38:41.484 -> GOING FORWARD
12:38:41.554 -> new meas 88 800 turning: 0  stop_vehicle: 0
12:38:41.554 -> GOING FORWARD
12:38:41.588 -> new meas 88 800 turning: 0  stop_vehicle: 0
12:38:41.588 -> GOING FORWARD
12:38:41.658 -> new meas 88 800 turning: 0  stop_vehicle: 0
12:38:41.658 -> GOING FORWARD
12:38:41.728 -> new meas 88 800 turning: 0  stop_vehicle: 0
12:38:41.728 -> GOING FORWARD
12:38:41.763 -> new meas 88 800 turning: 0  stop_vehicle: 0
12:38:41.763 -> GOING FORWARD
12:38:41.833 -> new meas 88 800 turning: 0  stop_vehicle: 0
12:38:41.833 -> GOING FORWARD
12:38:41.903 -> new meas 88 800 turning: 0  stop_vehicle: 0
12:38:41.903 -> GOING FORWARD
12:38:41.937 -> new meas 88 800 turning: 0  stop_vehicle: 0
12:38:41.971 -> GOING FORWARD
12:38:42.005 -> new meas 88 800 turning: 0  stop_vehicle: 0
12:38:42.005 -> GOING FORWARD
12:38:42.074 -> new meas 88 800 turning: 0  stop_vehicle: 0
12:38:42.074 -> GOING FORWARD
12:38:42.143 -> new meas 88 800 turning: 0  stop_vehicle: 0
12:38:42.143 -> GOING FORWARD
12:38:42.212 -> new meas 88 800 turning: 0  stop_vehicle: 0
12:38:42.212 -> GOING FORWARD
12:38:42.247 -> new meas 88 800 turning: 0  stop_vehicle: 0
12:38:42.247 -> GOING FORWARD
12:38:42.316 -> new meas 88 800 turning: 0  stop_vehicle: 0
12:38:42.316 -> GOING FORWARD
12:38:42.385 -> new meas 88 800 turning: 0  stop_vehicle: 0
12:38:42.385 -> GOING FORWARD
12:38:42.420 -> new meas 88 800 turning: 0  stop_vehicle: 0
12:38:42.420 -> GOING FORWARD
12:38:42.490 -> new meas 88 800 turning: 0  stop_vehicle: 0
12:38:42.490 -> GOING FORWARD
12:38:42.560 -> new meas 88 800 turning: 0  stop_vehicle: 0
12:38:42.560 -> GOING FORWARD
12:38:42.630 -> new meas 88 800 turning: 0  stop_vehicle: 0
12:38:42.630 -> GOING FORWARD
12:38:42.665 -> new meas 88 800 turning: 0  stop_vehicle: 0
12:38:42.665 -> GOING FORWARD
12:38:42.735 -> new meas 88 800 turning: 0  stop_vehicle: 0
12:38:42.735 -> GOING FORWARD
12:38:42.805 -> new meas 88 800 turning: 0  stop_vehicle: 0
12:38:42.805 -> GOING FORWARD
12:38:42.840 -> new meas 88 800 turning: 0  stop_vehicle: 0
12:38:42.875 -> GOING FORWARD
12:38:42.910 -> new meas 88 800 turning: 0  stop_vehicle: 0
12:38:42.910 -> GOING FORWARD
12:38:42.978 -> new meas 88 800 turning: 0  stop_vehicle: 0
12:38:42.978 -> GOING FORWARD
12:38:43.046 -> new meas 88 800 turning: 0  stop_vehicle: 0
12:38:43.046 -> GOING FORWARD
12:38:43.080 -> new meas 88 800 turning: 0  stop_vehicle: 0
12:38:43.080 -> GOING FORWARD
12:38:43.150 -> new meas 88 800 turning: 0  stop_vehicle: 0
12:38:43.150 -> GOING FORWARD
12:38:43.220 -> new meas 88 800 turning: 0  stop_vehicle: 0
12:38:43.220 -> GOING FORWARD
12:38:43.289 -> new meas 88 800 turning: 0  stop_vehicle: 0
12:38:43.289 -> GOING FORWARD
12:38:43.324 -> new meas 88 800 turning: 0  stop_vehicle: 0
12:38:43.324 -> GOING FORWARD
12:38:43.393 -> new meas 88 800 turning: 0  stop_vehicle: 0
12:38:43.393 -> GOING FORWARD
12:38:43.462 -> new meas 88 800 turning: 0  stop_vehicle: 0
12:38:43.462 -> GOING FORWARD
12:38:43.532 -> new meas 88 800 turning: 0  stop_vehicle: 0
12:38:43.532 -> GOING FORWARD
12:38:43.566 -> new meas 88 800 turning: 0  stop_vehicle: 0
12:38:43.566 -> GOING FORWARD
12:38:43.635 -> new meas 88 800 turning: 0  stop_vehicle: 0
12:38:43.635 -> GOING FORWARD
12:38:43.705 -> new meas 88 800 turning: 0  stop_vehicle: 0
12:38:43.705 -> GOING FORWARD
12:38:43.740 -> new meas 88 800 turning: 0  stop_vehicle: 0
12:38:43.775 -> GOING FORWARD
12:38:43.810 -> new meas 88 800 turning: 0  stop_vehicle: 0
12:38:43.810 -> GOING FORWARD
12:38:43.879 -> new meas 88 800 turning: 0  stop_vehicle: 0
12:38:43.879 -> GOING FORWARD
12:38:43.948 -> new meas 88 800 turning: 0  stop_vehicle: 0
12:38:43.948 -> GOING FORWARD
12:38:43.983 -> new meas 88 800 turning: 0  stop_vehicle: 0
12:38:43.983 -> GOING FORWARD
12:38:44.053 -> new meas 88 800 turning: 0  stop_vehicle: 0
12:38:44.053 -> GOING FORWARD
12:38:44.122 -> new meas 88 800 turning: 0  stop_vehicle: 0
12:38:44.122 -> GOING FORWARD
12:38:44.157 -> new meas 88 800 turning: 0  stop_vehicle: 0
12:38:44.192 -> GOING FORWARD
12:38:44.226 -> new meas 88 800 turning: 0  stop_vehicle: 0
12:38:44.226 -> GOING FORWARD
12:38:44.296 -> new meas 88 800 turning: 0  stop_vehicle: 0
12:38:44.296 -> GOING FORWARD
12:38:44.366 -> new meas 88 800 turning: 0  stop_vehicle: 0
12:38:44.366 -> GOING FORWARD
12:38:44.401 -> new meas 88 800 turning: 0  stop_vehicle: 0
12:38:44.436 -> GOING FORWARD
12:38:44.471 -> new meas 88 800 turning: 0  stop_vehicle: 0
12:38:44.471 -> GOING FORWARD
12:38:44.540 -> new meas 87 800 turning: 0  stop_vehicle: 0
12:38:44.540 -> GOING FORWARD
12:38:44.609 -> new meas 88 800 turning: 0  stop_vehicle: 0
12:38:44.609 -> GOING FORWARD
12:38:44.643 -> new meas 87 800 turning: 0  stop_vehicle: 0
12:38:44.643 -> GOING FORWARD
12:38:44.712 -> new meas 87 800 turning: 0  stop_vehicle: 0
12:38:44.712 -> GOING FORWARD
12:38:44.781 -> new meas 87 800 turning: 0  stop_vehicle: 0
12:38:44.781 -> GOING FORWARD
12:38:44.816 -> new meas 87 800 turning: 0  stop_vehicle: 0
12:38:44.850 -> GOING FORWARD
12:38:44.885 -> new meas 87 800 turning: 0  stop_vehicle: 0
12:38:44.885 -> GOING FORWARD
12:38:44.954 -> new meas 87 800 turning: 0  stop_vehicle: 0
12:38:44.954 -> GOING FORWARD
12:38:45.024 -> new meas 87 800 turning: 0  stop_vehicle: 0
12:38:45.024 -> GOING FORWARD
12:38:45.059 -> new meas 87 800 turning: 0  stop_vehicle: 0
12:38:45.094 -> GOING FORWARD
12:38:45.128 -> new meas 87 800 turning: 0  stop_vehicle: 0
12:38:45.128 -> GOING FORWARD
12:38:45.198 -> new meas 87 800 turning: 0  stop_vehicle: 0
12:38:45.198 -> GOING FORWARD
12:38:45.268 -> new meas 87 800 turning: 0  stop_vehicle: 0
12:38:45.268 -> GOING FORWARD
12:38:45.303 -> new meas 87 800 turning: 0  stop_vehicle: 0
12:38:45.338 -> GOING FORWARD
12:38:45.373 -> new meas 87 800 turning: 0  stop_vehicle: 0
12:38:45.373 -> GOING FORWARD
12:38:45.442 -> new meas 88 800 turning: 0  stop_vehicle: 0
12:38:45.442 -> GOING FORWARD
12:38:45.511 -> new meas 88 800 turning: 0  stop_vehicle: 0
12:38:45.511 -> GOING FORWARD
12:38:45.546 -> new meas 88 800 turning: 0  stop_vehicle: 0
12:38:45.546 -> GOING FORWARD
12:38:45.615 -> new meas 88 800 turning: 0  stop_vehicle: 0
12:38:45.615 -> GOING FORWARD
12:38:45.684 -> new meas 88 800 turning: 0  stop_vehicle: 0
12:38:45.684 -> GOING FORWARD
12:38:45.719 -> new meas 88 800 turning: 0  stop_vehicle: 0
12:38:45.753 -> GOING FORWARD
12:38:45.787 -> new meas 88 800 turning: 0  stop_vehicle: 0
12:38:45.787 -> GOING FORWARD
12:38:45.857 -> new meas 86 800 turning: 0  stop_vehicle: 0
12:38:45.857 -> GOING FORWARD
12:38:45.926 -> new meas 86 800 turning: 0  stop_vehicle: 0
12:38:45.926 -> GOING FORWARD
12:38:45.961 -> new meas 87 800 turning: 0  stop_vehicle: 0
12:38:45.996 -> GOING FORWARD
12:38:46.031 -> new meas 87 800 turning: 0  stop_vehicle: 0
12:38:46.031 -> GOING FORWARD
12:38:46.100 -> new meas 86 800 turning: 0  stop_vehicle: 0
12:38:46.100 -> GOING FORWARD
12:38:46.170 -> new meas 85 800 turning: 0  stop_vehicle: 0
12:38:46.170 -> GOING FORWARD
12:38:46.205 -> new meas 85 800 turning: 0  stop_vehicle: 0
12:38:46.205 -> GOING FORWARD
12:38:46.275 -> new meas 86 800 turning: 0  stop_vehicle: 0
12:38:46.275 -> GOING FORWARD
12:38:46.344 -> new meas 89 800 turning: 0  stop_vehicle: 0
12:38:46.344 -> GOING FORWARD
12:38:46.379 -> new meas 91 800 turning: 0  stop_vehicle: 0
12:38:46.414 -> GOING FORWARD
12:38:46.448 -> new meas 76 800 turning: 0  stop_vehicle: 0
12:38:46.448 -> GOING FORWARD
12:38:46.518 -> new meas 70 800 turning: 0  stop_vehicle: 0
12:38:46.518 -> GOING FORWARD
12:38:46.587 -> new meas 89 800 turning: 0  stop_vehicle: 0
12:38:46.587 -> GOING FORWARD
12:38:46.622 -> new meas 102 800 turning: 0  stop_vehicle: 0
12:38:46.657 -> GOING FORWARD
12:38:46.692 -> new meas 110 800 turning: 0  stop_vehicle: 0
12:38:46.692 -> GOING FORWARD
12:38:46.762 -> new meas 115 800 turning: 0  stop_vehicle: 0
12:38:46.762 -> GOING FORWARD
12:38:46.832 -> new meas 115 800 turning: 0  stop_vehicle: 0
12:38:46.832 -> GOING FORWARD
12:38:46.867 -> new meas 112 800 turning: 0  stop_vehicle: 0
12:38:46.867 -> GOING FORWARD
12:38:46.935 -> new meas 111 800 turning: 0  stop_vehicle: 0
12:38:46.935 -> GOING FORWARD
12:38:47.005 -> new meas 109 800 turning: 0  stop_vehicle: 0
12:38:47.005 -> GOING FORWARD
12:38:47.075 -> new meas 100 800 turning: 0  stop_vehicle: 0
12:38:47.075 -> GOING FORWARD
12:38:47.109 -> new meas 100 800 turning: 0  stop_vehicle: 0
12:38:47.109 -> GOING FORWARD
12:38:47.179 -> new meas 98 800 turning: 0  stop_vehicle: 0
12:38:47.179 -> GOING FORWARD
12:38:47.248 -> new meas 97 800 turning: 0  stop_vehicle: 0
12:38:47.248 -> GOING FORWARD
12:38:47.283 -> new meas 97 800 turning: 0  stop_vehicle: 0
12:38:47.283 -> GOING FORWARD
12:38:47.352 -> new meas 95 800 turning: 0  stop_vehicle: 0
12:38:47.352 -> GOING FORWARD
12:38:47.421 -> new meas 95 800 turning: 0  stop_vehicle: 0
12:38:47.421 -> GOING FORWARD
12:38:47.490 -> new meas 92 800 turning: 0  stop_vehicle: 0
12:38:47.490 -> GOING FORWARD
12:38:47.524 -> new meas 87 800 turning: 0  stop_vehicle: 0
12:38:47.524 -> GOING FORWARD
12:38:47.593 -> new meas 79 800 turning: 0  stop_vehicle: 0
12:38:47.593 -> GOING FORWARD
12:38:47.662 -> new meas 79 800 turning: 0  stop_vehicle: 0
12:38:47.662 -> GOING FORWARD
12:38:47.732 -> new meas 78 800 turning: 0  stop_vehicle: 0
12:38:47.732 -> GOING FORWARD
12:38:47.766 -> new meas 78 800 turning: 0  stop_vehicle: 0
12:38:47.766 -> GOING FORWARD
12:38:47.836 -> new meas 77 800 turning: 0  stop_vehicle: 0
12:38:47.836 -> GOING FORWARD
12:38:47.904 -> new meas 77 800 turning: 0  stop_vehicle: 0
12:38:47.904 -> GOING FORWARD
12:38:47.939 -> new meas 76 800 turning: 0  stop_vehicle: 0
12:38:47.974 -> GOING FORWARD
12:38:48.009 -> new meas 76 800 turning: 0  stop_vehicle: 0
12:38:48.009 -> GOING FORWARD
12:38:48.079 -> new meas 74 800 turning: 0  stop_vehicle: 0
12:38:48.079 -> GOING FORWARD
12:38:48.148 -> new meas 75 800 turning: 0  stop_vehicle: 0
12:38:48.148 -> GOING FORWARD
12:38:48.183 -> new meas 76 800 turning: 0  stop_vehicle: 0
12:38:48.183 -> GOING FORWARD
12:38:48.252 -> new meas 77 800 turning: 0  stop_vehicle: 0
12:38:48.252 -> GOING FORWARD
12:38:48.321 -> new meas 76 800 turning: 0  stop_vehicle: 0
12:38:48.321 -> GOING FORWARD
12:38:48.390 -> new meas 76 800 turning: 0  stop_vehicle: 0
12:38:48.390 -> GOING FORWARD
12:38:48.425 -> new meas 79 800 turning: 0  stop_vehicle: 0
12:38:48.425 -> GOING FORWARD
12:38:48.493 -> new meas 78 800 turning: 0  stop_vehicle: 0
12:38:48.493 -> GOING FORWARD
12:38:48.562 -> new meas 67 800 turning: 0  stop_vehicle: 0
12:38:48.562 -> GOING FORWARD
12:38:48.630 -> new meas 65 800 turning: 0  stop_vehicle: 0
12:38:48.630 -> GOING FORWARD
12:38:48.665 -> new meas 66 800 turning: 0  stop_vehicle: 0
12:38:48.665 -> GOING FORWARD
12:38:48.735 -> new meas 66 800 turning: 0  stop_vehicle: 0
12:38:48.735 -> GOING FORWARD
12:38:48.805 -> new meas 65 800 turning: 0  stop_vehicle: 0
12:38:48.805 -> GOING FORWARD
12:38:48.840 -> new meas 64 800 turning: 0  stop_vehicle: 0
12:38:48.875 -> GOING FORWARD
12:38:48.909 -> new meas 65 800 turning: 0  stop_vehicle: 0
12:38:48.909 -> GOING FORWARD
12:38:48.979 -> new meas 64 800 turning: 0  stop_vehicle: 0
12:38:48.979 -> GOING FORWARD
12:38:49.049 -> new meas 65 800 turning: 0  stop_vehicle: 0
12:38:49.049 -> GOING FORWARD
12:38:49.084 -> new meas 66 800 turning: 0  stop_vehicle: 0
12:38:49.119 -> GOING FORWARD
12:38:49.154 -> new meas 68 800 turning: 0  stop_vehicle: 0
12:38:49.154 -> GOING FORWARD
12:38:49.224 -> new meas 66 800 turning: 0  stop_vehicle: 0
12:38:49.224 -> GOING FORWARD
12:38:49.293 -> new meas 67 800 turning: 0  stop_vehicle: 0
12:38:49.293 -> GOING FORWARD
12:38:49.328 -> new meas 66 800 turning: 0  stop_vehicle: 0
12:38:49.328 -> GOING FORWARD
12:38:49.398 -> new meas 66 800 turning: 0  stop_vehicle: 0
12:38:49.398 -> GOING FORWARD
12:38:49.468 -> new meas 66 800 turning: 0  stop_vehicle: 0
12:38:49.468 -> GOING FORWARD
12:38:49.503 -> new meas 66 800 turning: 0  stop_vehicle: 0
12:38:49.503 -> GOING FORWARD
12:38:49.572 -> new meas 66 800 turning: 0  stop_vehicle: 0
12:38:49.572 -> GOING FORWARD
12:38:49.641 -> new meas 67 800 turning: 0  stop_vehicle: 0
12:38:49.641 -> GOING FORWARD
12:38:49.710 -> new meas 66 800 turning: 0  stop_vehicle: 0
12:38:49.710 -> GOING FORWARD
12:38:49.744 -> new meas 68 800 turning: 0  stop_vehicle: 0
12:38:49.744 -> GOING FORWARD
12:38:49.813 -> new meas 67 800 turning: 0  stop_vehicle: 0
12:38:49.813 -> GOING FORWARD
12:38:49.882 -> new meas 68 800 turning: 0  stop_vehicle: 0
12:38:49.882 -> GOING FORWARD
12:38:49.952 -> new meas 69 800 turning: 0  stop_vehicle: 0
12:38:49.952 -> GOING FORWARD
12:38:49.987 -> new meas 70 800 turning: 0  stop_vehicle: 0
12:38:49.987 -> GOING FORWARD
12:38:50.057 -> new meas 72 800 turning: 0  stop_vehicle: 0
12:38:50.057 -> GOING FORWARD
12:38:50.127 -> new meas 77 800 turning: 0  stop_vehicle: 0
12:38:50.127 -> GOING FORWARD
12:38:50.161 -> new meas 81 800 turning: 0  stop_vehicle: 0
12:38:50.196 -> GOING FORWARD
12:38:50.231 -> new meas 83 800 turning: 0  stop_vehicle: 0
12:38:50.231 -> GOING FORWARD
12:38:50.301 -> new meas 85 800 turning: 0  stop_vehicle: 0
12:38:50.301 -> GOING FORWARD
12:38:50.370 -> new meas 88 800 turning: 0  stop_vehicle: 0
12:38:50.370 -> GOING FORWARD
12:38:50.405 -> new meas 89 800 turning: 0  stop_vehicle: 0
12:38:50.405 -> GOING FORWARD
12:38:50.475 -> new meas 92 800 turning: 0  stop_vehicle: 0
12:38:50.475 -> GOING FORWARD
12:38:50.544 -> new meas 93 800 turning: 0  stop_vehicle: 0
12:38:50.544 -> GOING FORWARD
12:38:50.614 -> new meas 95 800 turning: 0  stop_vehicle: 0
12:38:50.614 -> GOING FORWARD
12:38:50.649 -> new meas 96 800 turning: 0  stop_vehicle: 0
12:38:50.649 -> GOING FORWARD
12:38:50.719 -> new meas 95 800 turning: 0  stop_vehicle: 0
12:38:50.719 -> GOING FORWARD
12:38:50.789 -> new meas 96 800 turning: 0  stop_vehicle: 0
12:38:50.789 -> GOING FORWARD
12:38:50.824 -> new meas 96 800 turning: 0  stop_vehicle: 0
12:38:50.859 -> GOING FORWARD
12:38:50.894 -> new meas 95 800 turning: 0  stop_vehicle: 0
12:38:50.894 -> GOING FORWARD
12:38:50.963 -> new meas 95 800 turning: 0  stop_vehicle: 0
12:38:50.963 -> GOING FORWARD
12:38:50.997 -> new meas 95 800 turning: 0  stop_vehicle: 0
12:38:51.030 -> GOING FORWARD
12:38:51.065 -> new meas 95 800 turning: 0  stop_vehicle: 0
12:38:51.065 -> GOING FORWARD
12:38:51.135 -> new meas 95 800 turning: 0  stop_vehicle: 0
12:38:51.135 -> GOING FORWARD
12:38:51.204 -> new meas 95 800 turning: 0  stop_vehicle: 0
12:38:51.204 -> GOING FORWARD
12:38:51.239 -> new meas 95 800 turning: 0  stop_vehicle: 0
12:38:51.274 -> GOING FORWARD
12:38:51.308 -> new meas 95 800 turning: 0  stop_vehicle: 0
12:38:51.308 -> GOING FORWARD
12:38:51.378 -> new meas 94 800 turning: 0  stop_vehicle: 0
12:38:51.378 -> GOING FORWARD
12:38:51.448 -> new meas 95 800 turning: 0  stop_vehicle: 0
12:38:51.448 -> GOING FORWARD
12:38:51.483 -> new meas 94 800 turning: 0  stop_vehicle: 0
12:38:51.518 -> GOING FORWARD
12:38:51.553 -> new meas 94 800 turning: 0  stop_vehicle: 0
12:38:51.553 -> GOING FORWARD
12:38:51.623 -> new meas 95 800 turning: 0  stop_vehicle: 0
12:38:51.623 -> GOING FORWARD
12:38:51.693 -> new meas 93 800 turning: 0  stop_vehicle: 0
12:38:51.693 -> GOING FORWARD
12:38:51.728 -> new meas 93 800 turning: 0  stop_vehicle: 0
12:38:51.728 -> GOING FORWARD
12:38:51.798 -> new meas 93 800 turning: 0  stop_vehicle: 0
12:38:51.798 -> GOING FORWARD
12:38:51.868 -> new meas 93 800 turning: 0  stop_vehicle: 0
12:38:51.868 -> GOING FORWARD
12:38:51.903 -> new meas 92 800 turning: 0  stop_vehicle: 0
12:38:51.903 -> GOING FORWARD
12:38:51.973 -> new meas 93 800 turning: 0  stop_vehicle: 0
12:38:51.973 -> GOING FORWARD
12:38:52.043 -> new meas 92 800 turning: 0  stop_vehicle: 0
12:38:52.043 -> GOING FORWARD
12:38:52.078 -> new meas 93 800 turning: 0  stop_vehicle: 0
12:38:52.113 -> GOING FORWARD
12:38:52.148 -> new meas 92 800 turning: 0  stop_vehicle: 0
12:38:52.148 -> GOING FORWARD
12:38:52.218 -> new meas 90 800 turning: 0  stop_vehicle: 0
12:38:52.218 -> GOING FORWARD
12:38:52.288 -> new meas 91 800 turning: 0  stop_vehicle: 0
12:38:52.288 -> GOING FORWARD
12:38:52.323 -> new meas 91 800 turning: 0  stop_vehicle: 0
12:38:52.358 -> GOING FORWARD
12:38:52.393 -> new meas 91 800 turning: 0  stop_vehicle: 0
12:38:52.393 -> GOING FORWARD
12:38:52.463 -> new meas 91 800 turning: 0  stop_vehicle: 0
12:38:52.463 -> GOING FORWARD
12:38:52.533 -> new meas 91 800 turning: 0  stop_vehicle: 0
12:38:52.533 -> GOING FORWARD
12:38:52.568 -> new meas 91 800 turning: 0  stop_vehicle: 0
12:38:52.568 -> GOING FORWARD
12:38:52.638 -> new meas 91 800 turning: 0  stop_vehicle: 0
12:38:52.638 -> GOING FORWARD
12:38:52.708 -> new meas 91 800 turning: 0  stop_vehicle: 0
12:38:52.708 -> GOING FORWARD
12:38:52.742 -> new meas 90 800 turning: 0  stop_vehicle: 0
12:38:52.742 -> GOING FORWARD
12:38:52.812 -> new meas 90 800 turning: 0  stop_vehicle: 0
12:38:52.812 -> GOING FORWARD
12:38:52.882 -> new meas 89 800 turning: 0  stop_vehicle: 0
12:38:52.882 -> GOING FORWARD
12:38:52.917 -> new meas 84 800 turning: 0  stop_vehicle: 0
12:38:52.952 -> GOING FORWARD
12:38:52.987 -> new meas 76 800 turning: 0  stop_vehicle: 0
12:38:52.987 -> GOING FORWARD
12:38:53.057 -> new meas 75 800 turning: 0  stop_vehicle: 0
12:38:53.057 -> GOING FORWARD
12:38:53.127 -> new meas 76 800 turning: 0  stop_vehicle: 0
12:38:53.127 -> GOING FORWARD
12:38:53.162 -> new meas 80 800 turning: 0  stop_vehicle: 0
12:38:53.197 -> GOING FORWARD
12:38:53.232 -> new meas 76 800 turning: 0  stop_vehicle: 0
12:38:53.232 -> GOING FORWARD
12:38:53.302 -> new meas 70 800 turning: 0  stop_vehicle: 0
12:38:53.302 -> GOING FORWARD
12:38:53.372 -> new meas 63 800 turning: 0  stop_vehicle: 0
12:38:53.372 -> GOING FORWARD
12:38:53.407 -> new meas 71 800 turning: 0  stop_vehicle: 0
12:38:53.407 -> GOING FORWARD
12:38:53.477 -> new meas 64 800 turning: 0  stop_vehicle: 0
12:38:53.477 -> GOING FORWARD
12:38:53.547 -> new meas 59 800 turning: 0  stop_vehicle: 0
12:38:53.547 -> GOING FORWARD
12:38:53.582 -> new meas 61 800 turning: 0  stop_vehicle: 0
12:38:53.617 -> GOING FORWARD
12:38:53.652 -> new meas 51 800 turning: 0  stop_vehicle: 0
12:38:53.652 -> GOING FORWARD
12:38:53.722 -> new meas 50 800 turning: 0  stop_vehicle: 0
12:38:53.722 -> GOING FORWARD
12:38:53.792 -> new meas 61 800 turning: 0  stop_vehicle: 0
12:38:53.792 -> GOING FORWARD
12:38:53.827 -> new meas 74 800 turning: 0  stop_vehicle: 0
12:38:53.827 -> GOING FORWARD
12:38:53.897 -> new meas 77 800 turning: 0  stop_vehicle: 0
12:38:53.897 -> GOING FORWARD
12:38:53.967 -> new meas 76 800 turning: 0  stop_vehicle: 0
12:38:53.967 -> GOING FORWARD
12:38:54.002 -> new meas 75 800 turning: 0  stop_vehicle: 0
12:38:54.037 -> GOING FORWARD
12:38:54.072 -> new meas 76 800 turning: 0  stop_vehicle: 0
12:38:54.072 -> GOING FORWARD
12:38:54.142 -> new meas 77 800 turning: 0  stop_vehicle: 0
12:38:54.142 -> GOING FORWARD
12:38:54.212 -> new meas 77 800 turning: 0  stop_vehicle: 0
12:38:54.212 -> GOING FORWARD
12:38:54.247 -> new meas 78 800 turning: 0  stop_vehicle: 0
12:38:54.247 -> GOING FORWARD
12:38:54.317 -> new meas 78 800 turning: 0  stop_vehicle: 0
12:38:54.317 -> GOING FORWARD
12:38:54.387 -> new meas 78 800 turning: 0  stop_vehicle: 0
12:38:54.387 -> GOING FORWARD
12:38:54.422 -> new meas 77 800 turning: 0  stop_vehicle: 0
12:38:54.457 -> GOING FORWARD
12:38:54.491 -> new meas 77 800 turning: 0  stop_vehicle: 0
12:38:54.491 -> GOING FORWARD
12:38:54.561 -> new meas 77 800 turning: 0  stop_vehicle: 0
12:38:54.561 -> GOING FORWARD
12:38:54.631 -> new meas 76 800 turning: 0  stop_vehicle: 0
12:38:54.631 -> GOING FORWARD
12:38:54.666 -> new meas 76 800 turning: 0  stop_vehicle: 0
12:38:54.666 -> GOING FORWARD
12:38:54.736 -> new meas 77 800 turning: 0  stop_vehicle: 0
12:38:54.736 -> GOING FORWARD
12:38:54.806 -> new meas 79 800 turning: 0  stop_vehicle: 0
12:38:54.806 -> GOING FORWARD
12:38:54.841 -> new meas 79 800 turning: 0  stop_vehicle: 0
12:38:54.876 -> GOING FORWARD
12:38:54.911 -> new meas 78 800 turning: 0  stop_vehicle: 0
12:38:54.911 -> GOING FORWARD
12:38:54.981 -> new meas 79 800 turning: 0  stop_vehicle: 0
12:38:54.981 -> GOING FORWARD
12:38:55.051 -> new meas 79 800 turning: 0  stop_vehicle: 0
12:38:55.051 -> GOING FORWARD
12:38:55.086 -> new meas 79 800 turning: 0  stop_vehicle: 0
12:38:55.086 -> GOING FORWARD
12:38:55.156 -> new meas 79 800 turning: 0  stop_vehicle: 0
12:38:55.156 -> GOING FORWARD
12:38:55.226 -> new meas 79 800 turning: 0  stop_vehicle: 0
12:38:55.226 -> GOING FORWARD
12:38:55.261 -> new meas 79 800 turning: 0  stop_vehicle: 0
12:38:55.296 -> GOING FORWARD
12:38:55.331 -> new meas 79 800 turning: 0  stop_vehicle: 0
12:38:55.331 -> GOING FORWARD
12:38:55.401 -> new meas 80 800 turning: 0  stop_vehicle: 0
12:38:55.401 -> GOING FORWARD
12:38:55.471 -> new meas 79 800 turning: 0  stop_vehicle: 0
12:38:55.471 -> GOING FORWARD
12:38:55.506 -> new meas 79 800 turning: 0  stop_vehicle: 0
12:38:55.506 -> GOING FORWARD
12:38:55.575 -> new meas 78 800 turning: 0  stop_vehicle: 0
12:38:55.575 -> GOING FORWARD
12:38:55.643 -> new meas 78 800 turning: 0  stop_vehicle: 0
12:38:55.643 -> GOING FORWARD
12:38:55.713 -> new meas 79 800 turning: 0  stop_vehicle: 0
12:38:55.713 -> GOING FORWARD
12:38:55.747 -> new meas 78 800 turning: 0  stop_vehicle: 0
12:38:55.747 -> GOING FORWARD
12:38:55.816 -> new meas 79 800 turning: 0  stop_vehicle: 0
12:38:55.816 -> GOING FORWARD
12:38:55.886 -> new meas 79 800 turning: 0  stop_vehicle: 0
12:38:55.886 -> GOING FORWARD
12:38:55.921 -> new meas 78 800 turning: 0  stop_vehicle: 0
12:38:55.955 -> GOING FORWARD
12:38:55.990 -> new meas 78 800 turning: 0  stop_vehicle: 0
12:38:55.990 -> GOING FORWARD
12:38:56.060 -> new meas 79 800 turning: 0  stop_vehicle: 0
12:38:56.060 -> GOING FORWARD
12:38:56.130 -> new meas 78 800 turning: 0  stop_vehicle: 0
12:38:56.130 -> GOING FORWARD
12:38:56.165 -> new meas 79 800 turning: 0  stop_vehicle: 0
12:38:56.165 -> GOING FORWARD
12:38:56.234 -> new meas 80 800 turning: 0  stop_vehicle: 0
12:38:56.234 -> GOING FORWARD
12:38:56.304 -> new meas 81 800 turning: 0  stop_vehicle: 0
12:38:56.304 -> GOING FORWARD
12:38:56.339 -> new meas 81 800 turning: 0  stop_vehicle: 0
12:38:56.374 -> GOING FORWARD
12:38:56.409 -> new meas 82 800 turning: 0  stop_vehicle: 0
12:38:56.409 -> GOING FORWARD
12:38:56.479 -> new meas 82 800 turning: 0  stop_vehicle: 0
12:38:56.479 -> GOING FORWARD
12:38:56.549 -> new meas 82 800 turning: 0  stop_vehicle: 0
12:38:56.549 -> GOING FORWARD
12:38:56.584 -> new meas 83 800 turning: 0  stop_vehicle: 0
12:38:56.584 -> GOING FORWARD
12:38:56.654 -> new meas 83 800 turning: 0  stop_vehicle: 0
12:38:56.654 -> GOING FORWARD
12:38:56.724 -> new meas 83 800 turning: 0  stop_vehicle: 0
12:38:56.724 -> GOING FORWARD
12:38:56.794 -> new meas 83 800 turning: 0  stop_vehicle: 0
12:38:56.794 -> GOING FORWARD
12:38:56.829 -> new meas 83 800 turning: 0  stop_vehicle: 0
12:38:56.829 -> GOING FORWARD
12:38:56.899 -> new meas 83 800 turning: 0  stop_vehicle: 0
12:38:56.899 -> GOING FORWARD
12:38:56.969 -> new meas 83 800 turning: 0  stop_vehicle: 0
12:38:56.969 -> GOING FORWARD
12:38:57.004 -> new meas 83 800 turning: 0  stop_vehicle: 0
12:38:57.039 -> GOING FORWARD
12:38:57.074 -> new meas 84 800 turning: 0  stop_vehicle: 0
12:38:57.074 -> GOING FORWARD
12:38:57.144 -> new meas 84 800 turning: 0  stop_vehicle: 0
12:38:57.144 -> GOING FORWARD
12:38:57.214 -> new meas 85 800 turning: 0  stop_vehicle: 0
12:38:57.214 -> GOING FORWARD
12:38:57.248 -> new meas 85 800 turning: 0  stop_vehicle: 0
12:38:57.248 -> GOING FORWARD
12:38:57.318 -> new meas 87 800 turning: 0  stop_vehicle: 0
12:38:57.318 -> GOING FORWARD
12:38:57.388 -> new meas 87 800 turning: 0  stop_vehicle: 0
12:38:57.388 -> GOING FORWARD
12:38:57.423 -> new meas 88 800 turning: 0  stop_vehicle: 0
12:38:57.458 -> GOING FORWARD
12:38:57.493 -> new meas 89 800 turning: 0  stop_vehicle: 0
12:38:57.493 -> GOING FORWARD
12:38:57.563 -> new meas 89 800 turning: 0  stop_vehicle: 0
12:38:57.563 -> GOING FORWARD
12:38:57.633 -> new meas 90 800 turning: 0  stop_vehicle: 0
12:38:57.633 -> GOING FORWARD
12:38:57.668 -> new meas 90 800 turning: 0  stop_vehicle: 0
12:38:57.668 -> GOING FORWARD
12:38:57.738 -> new meas 91 800 turning: 0  stop_vehicle: 0
12:38:57.738 -> GOING FORWARD
12:38:57.808 -> new meas 92 800 turning: 0  stop_vehicle: 0
12:38:57.808 -> GOING FORWARD
12:38:57.843 -> new meas 92 800 turning: 0  stop_vehicle: 0
12:38:57.878 -> GOING FORWARD
12:38:57.913 -> new meas 92 800 turning: 0  stop_vehicle: 0
12:38:57.913 -> GOING FORWARD
12:38:57.982 -> new meas 92 800 turning: 0  stop_vehicle: 0
12:38:57.982 -> GOING FORWARD
12:38:58.052 -> new meas 92 800 turning: 0  stop_vehicle: 0
12:38:58.052 -> GOING FORWARD
12:38:58.087 -> new meas 92 800 turning: 0  stop_vehicle: 0
12:38:58.087 -> GOING FORWARD
12:38:58.157 -> new meas 92 800 turning: 0  stop_vehicle: 0
12:38:58.157 -> GOING FORWARD
12:38:58.227 -> new meas 92 800 turning: 0  stop_vehicle: 0
12:38:58.227 -> GOING FORWARD
12:38:58.262 -> new meas 92 800 turning: 0  stop_vehicle: 0
12:38:58.297 -> GOING FORWARD
12:38:58.332 -> new meas 92 800 turning: 0  stop_vehicle: 0
12:38:58.332 -> GOING FORWARD
12:38:58.402 -> new meas 92 800 turning: 0  stop_vehicle: 0
12:38:58.402 -> GOING FORWARD
12:38:58.472 -> new meas 92 800 turning: 0  stop_vehicle: 0
12:38:58.472 -> GOING FORWARD
12:38:58.507 -> new meas 92 800 turning: 0  stop_vehicle: 0
12:38:58.507 -> GOING FORWARD
12:38:58.577 -> new meas 92 800 turning: 0  stop_vehicle: 0
12:38:58.577 -> GOING FORWARD
12:38:58.647 -> new meas 92 800 turning: 0  stop_vehicle: 0
12:38:58.647 -> GOING FORWARD
12:38:58.682 -> new meas 92 800 turning: 0  stop_vehicle: 0
12:38:58.717 -> GOING FORWARD
12:38:58.752 -> new meas 92 800 turning: 0  stop_vehicle: 0
12:38:58.752 -> GOING FORWARD
12:38:58.822 -> new meas 92 800 turning: 0  stop_vehicle: 0
12:38:58.822 -> GOING FORWARD
12:38:58.892 -> new meas 92 800 turning: 0  stop_vehicle: 0
12:38:58.892 -> GOING FORWARD
12:38:58.926 -> new meas 92 800 turning: 0  stop_vehicle: 0
12:38:58.926 -> GOING FORWARD
12:38:58.996 -> new meas 92 800 turning: 0  stop_vehicle: 0
12:38:58.996 -> GOING FORWARD
12:38:59.066 -> new meas 92 800 turning: 0  stop_vehicle: 0
12:38:59.066 -> GOING FORWARD
12:38:59.136 -> new meas 93 800 turning: 0  stop_vehicle: 0
12:38:59.136 -> GOING FORWARD
12:38:59.171 -> new meas 93 800 turning: 0  stop_vehicle: 0
12:38:59.171 -> GOING FORWARD
12:38:59.241 -> new meas 94 800 turning: 0  stop_vehicle: 0
12:38:59.241 -> GOING FORWARD
12:38:59.311 -> new meas 95 800 turning: 0  stop_vehicle: 0
12:38:59.311 -> GOING FORWARD
12:38:59.346 -> new meas 96 800 turning: 0  stop_vehicle: 0
12:38:59.346 -> GOING FORWARD
12:38:59.416 -> new meas 96 800 turning: 0  stop_vehicle: 0
12:38:59.416 -> GOING FORWARD
12:38:59.486 -> new meas 97 800 turning: 0  stop_vehicle: 0
12:38:59.486 -> GOING FORWARD
12:38:59.521 -> new meas 98 800 turning: 0  stop_vehicle: 0
12:38:59.556 -> GOING FORWARD
12:38:59.591 -> new meas 98 800 turning: 0  stop_vehicle: 0
12:38:59.591 -> GOING FORWARD
12:38:59.661 -> new meas 99 800 turning: 0  stop_vehicle: 0
12:38:59.661 -> GOING FORWARD
12:38:59.730 -> new meas 99 800 turning: 0  stop_vehicle: 0
12:38:59.730 -> GOING FORWARD
12:38:59.765 -> new meas 98 800 turning: 0  stop_vehicle: 0
12:38:59.800 -> GOING FORWARD
12:38:59.835 -> new meas 96 800 turning: 0  stop_vehicle: 0
12:38:59.835 -> GOING FORWARD
12:38:59.905 -> new meas 95 800 turning: 0  stop_vehicle: 0
12:38:59.905 -> GOING FORWARD
12:38:59.975 -> new meas 96 800 turning: 0  stop_vehicle: 0
12:38:59.975 -> GOING FORWARD
12:39:00.010 -> new meas 100 800 turning: 0  stop_vehicle: 0
12:39:00.010 -> GOING FORWARD
12:39:00.080 -> new meas 102 800 turning: 0  stop_vehicle: 0
12:39:00.080 -> GOING FORWARD
12:39:00.150 -> new meas 102 800 turning: 0  stop_vehicle: 0
12:39:00.150 -> GOING FORWARD
12:39:00.185 -> new meas 100 800 turning: 0  stop_vehicle: 0
12:39:00.185 -> GOING FORWARD
12:39:00.255 -> new meas 97 800 turning: 0  stop_vehicle: 0
12:39:00.255 -> GOING FORWARD
12:39:00.325 -> new meas 91 800 turning: 0  stop_vehicle: 0
12:39:00.325 -> GOING FORWARD
12:39:00.360 -> new meas 85 800 turning: 0  stop_vehicle: 0
12:39:00.395 -> GOING FORWARD
12:39:00.430 -> new meas 80 800 turning: 0  stop_vehicle: 0
12:39:00.430 -> GOING FORWARD
12:39:00.500 -> new meas 75 800 turning: 0  stop_vehicle: 0
12:39:00.500 -> GOING FORWARD
12:39:00.570 -> new meas 69 800 turning: 0  stop_vehicle: 0
12:39:00.570 -> GOING FORWARD
12:39:00.605 -> new meas 64 800 turning: 0  stop_vehicle: 0
12:39:00.640 -> GOING FORWARD
12:39:00.675 -> new meas 65 800 turning: 0  stop_vehicle: 0
12:39:00.675 -> GOING FORWARD
12:39:00.745 -> new meas 76 800 turning: 0  stop_vehicle: 0
12:39:00.745 -> GOING FORWARD
12:39:00.815 -> new meas 86 800 turning: 0  stop_vehicle: 0
12:39:00.815 -> GOING FORWARD
12:39:00.850 -> new meas 91 800 turning: 0  stop_vehicle: 0
12:39:00.850 -> GOING FORWARD
12:39:00.920 -> new meas 92 800 turning: 0  stop_vehicle: 0
12:39:00.920 -> GOING FORWARD
12:39:00.990 -> new meas 93 800 turning: 0  stop_vehicle: 0
12:39:00.990 -> GOING FORWARD
12:39:01.025 -> new meas 93 800 turning: 0  stop_vehicle: 0
12:39:01.025 -> GOING FORWARD
12:39:01.095 -> new meas 93 800 turning: 0  stop_vehicle: 0
12:39:01.095 -> GOING FORWARD
12:39:01.165 -> new meas 93 800 turning: 0  stop_vehicle: 0
12:39:01.165 -> GOING FORWARD
12:39:01.200 -> new meas 93 800 turning: 0  stop_vehicle: 0
12:39:01.235 -> GOING FORWARD
12:39:01.270 -> new meas 92 800 turning: 0  stop_vehicle: 0
12:39:01.270 -> GOING FORWARD
12:39:01.340 -> new meas 93 800 turning: 0  stop_vehicle: 0
12:39:01.340 -> GOING FORWARD
12:39:01.410 -> new meas 92 800 turning: 0  stop_vehicle: 0
12:39:01.410 -> GOING FORWARD
12:39:01.442 -> new meas 93 800 turning: 0  stop_vehicle: 0
12:39:01.477 -> GOING FORWARD
12:39:01.512 -> new meas 92 800 turning: 0  stop_vehicle: 0
12:39:01.512 -> GOING FORWARD
12:39:01.582 -> new meas 92 800 turning: 0  stop_vehicle: 0
12:39:01.582 -> GOING FORWARD
12:39:01.652 -> new meas 93 800 turning: 0  stop_vehicle: 0
12:39:01.652 -> GOING FORWARD
12:39:01.687 -> new meas 92 800 turning: 0  stop_vehicle: 0
12:39:01.687 -> GOING FORWARD
12:39:01.757 -> new meas 92 800 turning: 0  stop_vehicle: 0
12:39:01.757 -> GOING FORWARD
12:39:01.827 -> new meas 93 800 turning: 0  stop_vehicle: 0
12:39:01.827 -> GOING FORWARD
12:39:01.862 -> new meas 92 800 turning: 0  stop_vehicle: 0
12:39:01.897 -> GOING FORWARD
12:39:01.932 -> new meas 92 800 turning: 0  stop_vehicle: 0
12:39:01.932 -> GOING FORWARD
12:39:02.002 -> new meas 92 800 turning: 0  stop_vehicle: 0
12:39:02.002 -> GOING FORWARD
12:39:02.072 -> new meas 92 800 turning: 0  stop_vehicle: 0
12:39:02.072 -> GOING FORWARD
12:39:02.106 -> new meas 93 800 turning: 0  stop_vehicle: 0
12:39:02.106 -> GOING FORWARD
12:39:02.174 -> new meas 92 800 turning: 0  stop_vehicle: 0
12:39:02.174 -> GOING FORWARD
12:39:02.244 -> new meas 92 800 turning: 0  stop_vehicle: 0
12:39:02.244 -> GOING FORWARD
12:39:02.314 -> new meas 93 800 turning: 0  stop_vehicle: 0
12:39:02.314 -> GOING FORWARD
12:39:02.349 -> new meas 93 800 turning: 0  stop_vehicle: 0
12:39:02.349 -> GOING FORWARD
12:39:02.419 -> new meas 93 800 turning: 0  stop_vehicle: 0
12:39:02.419 -> GOING FORWARD
12:39:02.489 -> new meas 93 800 turning: 0  stop_vehicle: 0
12:39:02.489 -> GOING FORWARD
12:39:02.523 -> new meas 93 800 turning: 0  stop_vehicle: 0
12:39:02.523 -> GOING FORWARD
12:39:02.592 -> new meas 93 800 turning: 0  stop_vehicle: 0
12:39:02.592 -> GOING FORWARD
12:39:02.661 -> new meas 93 800 turning: 0  stop_vehicle: 0
12:39:02.661 -> GOING FORWARD
12:39:02.731 -> new meas 93 800 turning: 0  stop_vehicle: 0
12:39:02.731 -> GOING FORWARD
12:39:02.765 -> new meas 93 800 turning: 0  stop_vehicle: 0
12:39:02.765 -> GOING FORWARD
12:39:02.835 -> new meas 93 800 turning: 0  stop_vehicle: 0
12:39:02.835 -> GOING FORWARD
12:39:02.904 -> new meas 93 800 turning: 0  stop_vehicle: 0
12:39:02.904 -> GOING FORWARD
12:39:02.973 -> new meas 93 800 turning: 0  stop_vehicle: 0
12:39:02.973 -> GOING FORWARD
12:39:03.008 -> new meas 93 800 turning: 0  stop_vehicle: 0
12:39:03.008 -> GOING FORWARD
12:39:03.078 -> new meas 93 800 turning: 0  stop_vehicle: 0
12:39:03.078 -> GOING FORWARD
12:39:03.148 -> new meas 93 800 turning: 0  stop_vehicle: 0
12:39:03.148 -> GOING FORWARD
12:39:03.182 -> new meas 93 800 turning: 0  stop_vehicle: 0
12:39:03.216 -> GOING FORWARD
12:39:03.251 -> new meas 93 800 turning: 0  stop_vehicle: 0
12:39:03.251 -> GOING FORWARD
12:39:03.321 -> new meas 93 800 turning: 0  stop_vehicle: 0
12:39:03.321 -> GOING FORWARD
12:39:03.390 -> new meas 93 800 turning: 0  stop_vehicle: 0
12:39:03.390 -> GOING FORWARD
12:39:03.425 -> new meas 93 800 turning: 0  stop_vehicle: 0
12:39:03.425 -> GOING FORWARD
12:39:03.494 -> new meas 93 800 turning: 0  stop_vehicle: 0
12:39:03.494 -> GOING FORWARD
12:39:03.564 -> new meas 93 800 turning: 0  stop_vehicle: 0
12:39:03.564 -> GOING FORWARD
12:39:03.632 -> new meas 93 800 turning: 0  stop_vehicle: 0
12:39:03.632 -> GOING FORWARD
12:39:03.666 -> new meas 93 800 turning: 0  stop_vehicle: 0
12:39:03.666 -> GOING FORWARD
12:39:03.734 -> new meas 93 800 turning: 0  stop_vehicle: 0
12:39:03.734 -> GOING FORWARD
12:39:03.804 -> new meas 93 800 turning: 0  stop_vehicle: 0
12:39:03.804 -> GOING FORWARD
12:39:03.874 -> new meas 93 800 turning: 0  stop_vehicle: 0
12:39:03.874 -> GOING FORWARD
12:39:03.908 -> new meas 93 800 turning: 0  stop_vehicle: 0
12:39:03.908 -> GOING FORWARD
12:39:03.976 -> new meas 93 800 turning: 0  stop_vehicle: 0
12:39:03.976 -> GOING FORWARD
12:39:04.045 -> new meas 93 800 turning: 0  stop_vehicle: 0
12:39:04.045 -> GOING FORWARD
12:39:04.115 -> new meas 93 800 turning: 0  stop_vehicle: 0
12:39:04.115 -> GOING FORWARD
12:39:04.150 -> new meas 93 800 turning: 0  stop_vehicle: 0
12:39:04.150 -> GOING FORWARD
12:39:04.220 -> new meas 94 800 turning: 0  stop_vehicle: 0
12:39:04.220 -> GOING FORWARD
12:39:04.289 -> new meas 93 800 turning: 0  stop_vehicle: 0
12:39:04.289 -> GOING FORWARD
12:39:04.324 -> new meas 93 800 turning: 0  stop_vehicle: 0
12:39:04.359 -> GOING FORWARD
12:39:04.394 -> new meas 93 800 turning: 0  stop_vehicle: 0
12:39:04.394 -> GOING FORWARD
12:39:04.463 -> new meas 93 800 turning: 0  stop_vehicle: 0
12:39:04.463 -> GOING FORWARD
12:39:04.532 -> new meas 93 800 turning: 0  stop_vehicle: 0
12:39:04.532 -> GOING FORWARD
12:39:04.567 -> new meas 93 800 turning: 0  stop_vehicle: 0
12:39:04.567 -> GOING FORWARD
12:39:04.637 -> new meas 93 800 turning: 0  stop_vehicle: 0
12:39:04.637 -> GOING FORWARD
12:39:04.706 -> new meas 93 800 turning: 0  stop_vehicle: 0
12:39:04.706 -> GOING FORWARD
12:39:04.774 -> new meas 93 800 turning: 0  stop_vehicle: 0
12:39:04.774 -> GOING FORWARD
12:39:04.809 -> new meas 93 800 turning: 0  stop_vehicle: 0
12:39:04.809 -> GOING FORWARD
12:39:04.878 -> new meas 94 800 turning: 0  stop_vehicle: 0
12:39:04.878 -> GOING FORWARD
12:39:04.947 -> new meas 93 800 turning: 0  stop_vehicle: 0
12:39:04.947 -> GOING FORWARD
12:39:04.982 -> new meas 93 800 turning: 0  stop_vehicle: 0
12:39:05.017 -> GOING FORWARD
12:39:05.052 -> new meas 94 800 turning: 0  stop_vehicle: 0
12:39:05.052 -> GOING FORWARD
12:39:05.121 -> new meas 94 800 turning: 0  stop_vehicle: 0
12:39:05.121 -> GOING FORWARD
12:39:05.190 -> new meas 94 800 turning: 0  stop_vehicle: 0
12:39:05.190 -> GOING FORWARD
12:39:05.225 -> new meas 94 800 turning: 0  stop_vehicle: 0
12:39:05.225 -> GOING FORWARD
12:39:05.295 -> new meas 94 800 turning: 0  stop_vehicle: 0
12:39:05.295 -> GOING FORWARD
12:39:05.365 -> new meas 93 800 turning: 0  stop_vehicle: 0
12:39:05.365 -> GOING FORWARD
12:39:05.435 -> new meas 94 800 turning: 0  stop_vehicle: 0
12:39:05.435 -> GOING FORWARD
12:39:05.469 -> new meas 93 800 turning: 0  stop_vehicle: 0
12:39:05.469 -> GOING FORWARD
12:39:05.539 -> new meas 93 800 turning: 0  stop_vehicle: 0
12:39:05.539 -> GOING FORWARD
12:39:05.607 -> new meas 93 800 turning: 0  stop_vehicle: 0
12:39:05.607 -> GOING FORWARD
12:39:05.641 -> new meas 93 800 turning: 0  stop_vehicle: 0
12:39:05.676 -> GOING FORWARD
12:39:05.711 -> new meas 93 800 turning: 0  stop_vehicle: 0
12:39:05.711 -> GOING FORWARD
12:39:05.780 -> new meas 94 800 turning: 0  stop_vehicle: 0
12:39:05.780 -> GOING FORWARD
12:39:05.850 -> new meas 93 800 turning: 0  stop_vehicle: 0
12:39:05.850 -> GOING FORWARD
12:39:05.885 -> new meas 93 800 turning: 0  stop_vehicle: 0
12:39:05.885 -> GOING FORWARD
12:39:05.955 -> new meas 93 800 turning: 0  stop_vehicle: 0
12:39:05.955 -> GOING FORWARD
12:39:06.023 -> new meas 94 800 turning: 0  stop_vehicle: 0
12:39:06.023 -> GOING FORWARD
12:39:06.092 -> new meas 94 800 turning: 0  stop_vehicle: 0
12:39:06.092 -> GOING FORWARD
12:39:06.127 -> new meas 94 800 turning: 0  stop_vehicle: 0
12:39:06.127 -> GOING FORWARD
12:39:06.197 -> new meas 94 800 turning: 0  stop_vehicle: 0
12:39:06.197 -> GOING FORWARD
12:39:06.267 -> new meas 94 800 turning: 0  stop_vehicle: 0
12:39:06.267 -> GOING FORWARD
12:39:06.337 -> new meas 94 800 turning: 0  stop_vehicle: 0
12:39:06.337 -> GOING FORWARD
12:39:06.372 -> new meas 94 800 turning: 0  stop_vehicle: 0
12:39:06.372 -> GOING FORWARD
12:39:06.442 -> new meas 94 800 turning: 0  stop_vehicle: 0
12:39:06.442 -> GOING FORWARD
12:39:06.512 -> new meas 94 800 turning: 0  stop_vehicle: 0
12:39:06.512 -> GOING FORWARD
12:39:06.547 -> new meas 94 800 turning: 0  stop_vehicle: 0
12:39:06.547 -> GOING FORWARD
12:39:06.617 -> new meas 94 800 turning: 0  stop_vehicle: 0
12:39:06.617 -> GOING FORWARD
12:39:06.686 -> new meas 94 800 turning: 0  stop_vehicle: 0
12:39:06.686 -> GOING FORWARD
12:39:06.721 -> new meas 93 800 turning: 0  stop_vehicle: 0
12:39:06.755 -> GOING FORWARD
12:39:06.790 -> new meas 87 800 turning: 0  stop_vehicle: 0
12:39:06.790 -> GOING FORWARD
12:39:06.860 -> new meas 79 800 turning: 0  stop_vehicle: 0
12:39:06.860 -> GOING FORWARD
12:39:06.930 -> new meas 64 800 turning: 0  stop_vehicle: 0
12:39:06.930 -> GOING FORWARD
12:39:06.965 -> new meas 63 800 turning: 0  stop_vehicle: 0
12:39:07.000 -> GOING FORWARD
12:39:07.035 -> new meas 85 800 turning: 0  stop_vehicle: 0
12:39:07.035 -> GOING FORWARD
12:39:07.105 -> new meas 88 800 turning: 0  stop_vehicle: 0
12:39:07.105 -> GOING FORWARD
12:39:07.175 -> new meas 86 800 turning: 0  stop_vehicle: 0
12:39:07.175 -> GOING FORWARD
12:39:07.210 -> new meas 86 800 turning: 0  stop_vehicle: 0
12:39:07.210 -> GOING FORWARD
12:39:07.280 -> new meas 86 800 turning: 0  stop_vehicle: 0
12:39:07.280 -> GOING FORWARD
12:39:07.350 -> new meas 86 800 turning: 0  stop_vehicle: 0
12:39:07.350 -> GOING FORWARD
12:39:07.385 -> new meas 87 800 turning: 0  stop_vehicle: 0
12:39:07.385 -> GOING FORWARD
12:39:07.455 -> new meas 86 800 turning: 0  stop_vehicle: 0
12:39:07.455 -> GOING FORWARD
12:39:07.525 -> new meas 86 800 turning: 0  stop_vehicle: 0
12:39:07.525 -> GOING FORWARD
12:39:07.560 -> new meas 87 800 turning: 0  stop_vehicle: 0
12:39:07.595 -> GOING FORWARD
12:39:07.630 -> new meas 87 800 turning: 0  stop_vehicle: 0
12:39:07.630 -> GOING FORWARD
12:39:07.700 -> new meas 87 800 turning: 0  stop_vehicle: 0
12:39:07.700 -> GOING FORWARD
12:39:07.770 -> new meas 86 800 turning: 0  stop_vehicle: 0
12:39:07.770 -> GOING FORWARD
12:39:07.805 -> new meas 86 800 turning: 0  stop_vehicle: 0
12:39:07.840 -> GOING FORWARD
12:39:07.875 -> new meas 87 800 turning: 0  stop_vehicle: 0
12:39:07.875 -> GOING FORWARD
12:39:07.945 -> new meas 87 800 turning: 0  stop_vehicle: 0
12:39:07.945 -> GOING FORWARD
12:39:08.015 -> new meas 87 800 turning: 0  stop_vehicle: 0
12:39:08.015 -> GOING FORWARD
12:39:08.050 -> new meas 87 800 turning: 0  stop_vehicle: 0
12:39:08.050 -> GOING FORWARD
12:39:08.120 -> new meas 87 800 turning: 0  stop_vehicle: 0
12:39:08.120 -> GOING FORWARD
12:39:08.190 -> new meas 87 800 turning: 0  stop_vehicle: 0
12:39:08.190 -> GOING FORWARD
12:39:08.225 -> new meas 87 800 turning: 0  stop_vehicle: 0
12:39:08.225 -> GOING FORWARD
12:39:08.295 -> new meas 87 800 turning: 0  stop_vehicle: 0
12:39:08.295 -> GOING FORWARD
12:39:08.365 -> new meas 88 800 turning: 0  stop_vehicle: 0
12:39:08.365 -> GOING FORWARD
12:39:08.434 -> new meas 88 800 turning: 0  stop_vehicle: 0
12:39:08.434 -> GOING FORWARD
12:39:08.469 -> new meas 87 800 turning: 0  stop_vehicle: 0
12:39:08.469 -> GOING FORWARD
12:39:08.539 -> new meas 88 800 turning: 0  stop_vehicle: 0
12:39:08.539 -> GOING FORWARD
12:39:08.608 -> new meas 88 800 turning: 0  stop_vehicle: 0
12:39:08.608 -> GOING FORWARD
12:39:08.643 -> new meas 88 800 turning: 0  stop_vehicle: 0
12:39:08.678 -> GOING FORWARD
12:39:08.713 -> new meas 88 800 turning: 0  stop_vehicle: 0
12:39:08.713 -> GOING FORWARD
12:39:08.783 -> new meas 88 800 turning: 0  stop_vehicle: 0
12:39:08.783 -> GOING FORWARD
12:39:08.853 -> new meas 88 800 turning: 0  stop_vehicle: 0
12:39:08.853 -> GOING FORWARD
12:39:08.888 -> new meas 88 800 turning: 0  stop_vehicle: 0
12:39:08.888 -> GOING FORWARD
12:39:08.957 -> new meas 88 800 turning: 0  stop_vehicle: 0
12:39:08.957 -> GOING FORWARD
12:39:09.027 -> new meas 88 800 turning: 0  stop_vehicle: 0
12:39:09.027 -> GOING FORWARD
12:39:09.097 -> new meas 89 800 turning: 0  stop_vehicle: 0
12:39:09.097 -> GOING FORWARD
12:39:09.132 -> new meas 89 800 turning: 0  stop_vehicle: 0
12:39:09.132 -> GOING FORWARD
12:39:09.202 -> new meas 90 800 turning: 0  stop_vehicle: 0
12:39:09.202 -> GOING FORWARD
12:39:09.272 -> new meas 89 800 turning: 0  stop_vehicle: 0
12:39:09.272 -> GOING FORWARD
12:39:09.307 -> new meas 90 800 turning: 0  stop_vehicle: 0
12:39:09.307 -> GOING FORWARD
12:39:09.377 -> new meas 91 800 turning: 0  stop_vehicle: 0
12:39:09.377 -> GOING FORWARD
12:39:09.447 -> new meas 91 800 turning: 0  stop_vehicle: 0
12:39:09.447 -> GOING FORWARD
12:39:09.481 -> new meas 92 800 turning: 0  stop_vehicle: 0
12:39:09.515 -> GOING FORWARD
12:39:09.550 -> new meas 93 800 turning: 0  stop_vehicle: 0
12:39:09.550 -> GOING FORWARD
12:39:09.620 -> new meas 94 800 turning: 0  stop_vehicle: 0
12:39:09.620 -> GOING FORWARD
12:39:09.690 -> new meas 94 800 turning: 0  stop_vehicle: 0
12:39:09.690 -> GOING FORWARD
12:39:09.724 -> new meas 94 800 turning: 0  stop_vehicle: 0
12:39:09.759 -> GOING FORWARD
12:39:09.793 -> new meas 94 800 turning: 0  stop_vehicle: 0
12:39:09.793 -> GOING FORWARD
12:39:09.863 -> new meas 95 800 turning: 0  stop_vehicle: 0
12:39:09.863 -> GOING FORWARD
12:39:09.933 -> new meas 95 800 turning: 0  stop_vehicle: 0
12:39:09.933 -> GOING FORWARD
12:39:09.968 -> new meas 95 800 turning: 0  stop_vehicle: 0
12:39:09.968 -> GOING FORWARD
12:39:10.038 -> new meas 95 800 turning: 0  stop_vehicle: 0
12:39:10.038 -> GOING FORWARD
12:39:10.107 -> new meas 95 800 turning: 0  stop_vehicle: 0
12:39:10.107 -> GOING FORWARD
12:39:10.141 -> new meas 96 800 turning: 0  stop_vehicle: 0
12:39:10.176 -> GOING FORWARD
12:39:10.211 -> new meas 96 800 turning: 0  stop_vehicle: 0
12:39:10.211 -> GOING FORWARD
12:39:10.281 -> new meas 96 800 turning: 0  stop_vehicle: 0
12:39:10.281 -> GOING FORWARD
12:39:10.351 -> new meas 96 800 turning: 0  stop_vehicle: 0
12:39:10.351 -> GOING FORWARD
12:39:10.385 -> new meas 96 800 turning: 0  stop_vehicle: 0
12:39:10.420 -> GOING FORWARD
12:39:10.454 -> new meas 96 800 turning: 0  stop_vehicle: 0
12:39:10.454 -> GOING FORWARD
12:39:10.523 -> new meas 96 800 turning: 0  stop_vehicle: 0
12:39:10.523 -> GOING FORWARD
12:39:10.593 -> new meas 96 800 turning: 0  stop_vehicle: 0
12:39:10.593 -> GOING FORWARD
12:39:10.628 -> new meas 97 800 turning: 0  stop_vehicle: 0
12:39:10.628 -> GOING FORWARD
12:39:10.698 -> new meas 97 800 turning: 0  stop_vehicle: 0
12:39:10.698 -> GOING FORWARD
12:39:10.768 -> new meas 98 800 turning: 0  stop_vehicle: 0
12:39:10.768 -> GOING FORWARD
12:39:10.803 -> new meas 98 800 turning: 0  stop_vehicle: 0
12:39:10.838 -> GOING FORWARD
12:39:10.873 -> new meas 99 800 turning: 0  stop_vehicle: 0
12:39:10.873 -> GOING FORWARD
12:39:10.943 -> new meas 99 800 turning: 0  stop_vehicle: 0
12:39:10.943 -> GOING FORWARD
12:39:11.013 -> new meas 99 800 turning: 0  stop_vehicle: 0
12:39:11.013 -> GOING FORWARD
12:39:11.048 -> new meas 99 800 turning: 0  stop_vehicle: 0
12:39:11.048 -> GOING FORWARD
12:39:11.118 -> new meas 99 800 turning: 0  stop_vehicle: 0
12:39:11.118 -> GOING FORWARD
12:39:11.188 -> new meas 99 800 turning: 0  stop_vehicle: 0
12:39:11.188 -> GOING FORWARD
12:39:11.222 -> new meas 99 800 turning: 0  stop_vehicle: 0
12:39:11.257 -> GOING FORWARD
12:39:11.292 -> new meas 99 800 turning: 0  stop_vehicle: 0
12:39:11.292 -> GOING FORWARD
12:39:11.362 -> new meas 99 800 turning: 0  stop_vehicle: 0
12:39:11.362 -> GOING FORWARD
12:39:11.432 -> new meas 99 800 turning: 0  stop_vehicle: 0
12:39:11.432 -> GOING FORWARD
12:39:11.467 -> new meas 99 800 turning: 0  stop_vehicle: 0
12:39:11.502 -> GOING FORWARD
12:39:11.537 -> new meas 99 800 turning: 0  stop_vehicle: 0
12:39:11.537 -> GOING FORWARD
12:39:11.607 -> new meas 99 800 turning: 0  stop_vehicle: 0
12:39:11.607 -> GOING FORWARD
12:39:11.677 -> new meas 99 800 turning: 0  stop_vehicle: 0
12:39:11.677 -> GOING FORWARD
12:39:11.712 -> new meas 99 800 turning: 0  stop_vehicle: 0
12:39:11.712 -> GOING FORWARD
12:39:11.782 -> new meas 99 800 turning: 0  stop_vehicle: 0
12:39:11.782 -> GOING FORWARD
12:39:11.851 -> new meas 99 800 turning: 0  stop_vehicle: 0
12:39:11.851 -> GOING FORWARD
12:39:11.886 -> new meas 99 800 turning: 0  stop_vehicle: 0
12:39:11.886 -> GOING FORWARD
12:39:11.956 -> new meas 99 800 turning: 0  stop_vehicle: 0
12:39:11.956 -> GOING FORWARD
12:39:12.026 -> new meas 99 800 turning: 0  stop_vehicle: 0
12:39:12.026 -> GOING FORWARD
12:39:12.061 -> new meas 99 800 turning: 0  stop_vehicle: 0
12:39:12.096 -> GOING FORWARD
12:39:12.130 -> new meas 99 800 turning: 0  stop_vehicle: 0
12:39:12.130 -> GOING FORWARD
12:39:12.200 -> new meas 99 800 turning: 0  stop_vehicle: 0
12:39:12.200 -> GOING FORWARD
12:39:12.270 -> new meas 99 800 turning: 0  stop_vehicle: 0
12:39:12.270 -> GOING FORWARD
12:39:12.305 -> new meas 99 800 turning: 0  stop_vehicle: 0
12:39:12.340 -> GOING FORWARD
12:39:12.375 -> new meas 99 800 turning: 0  stop_vehicle: 0
12:39:12.375 -> GOING FORWARD
12:39:12.445 -> new meas 99 800 turning: 0  stop_vehicle: 0
12:39:12.445 -> GOING FORWARD
12:39:12.515 -> new meas 99 800 turning: 0  stop_vehicle: 0
12:39:12.515 -> GOING FORWARD
12:39:12.550 -> new meas 99 800 turning: 0  stop_vehicle: 0
12:39:12.550 -> GOING FORWARD
12:39:12.620 -> new meas 99 800 turning: 0  stop_vehicle: 0
12:39:12.620 -> GOING FORWARD
12:39:12.690 -> new meas 99 800 turning: 0  stop_vehicle: 0
12:39:12.690 -> GOING FORWARD
12:39:12.725 -> new meas 99 800 turning: 0  stop_vehicle: 0
12:39:12.725 -> GOING FORWARD
12:39:12.795 -> new meas 99 800 turning: 0  stop_vehicle: 0
12:39:12.795 -> GOING FORWARD
12:39:12.865 -> new meas 99 800 turning: 0  stop_vehicle: 0
12:39:12.865 -> GOING FORWARD
12:39:12.935 -> new meas 99 800 turning: 0  stop_vehicle: 0
12:39:12.935 -> GOING FORWARD
12:39:12.970 -> new meas 99 800 turning: 0  stop_vehicle: 0
12:39:12.970 -> GOING FORWARD
12:39:13.040 -> new meas 99 800 turning: 0  stop_vehicle: 0
12:39:13.040 -> GOING FORWARD
12:39:13.110 -> new meas 99 800 turning: 0  stop_vehicle: 0
12:39:13.110 -> GOING FORWARD
12:39:13.145 -> new meas 99 800 turning: 0  stop_vehicle: 0
12:39:13.180 -> GOING FORWARD
12:39:13.215 -> new meas 99 800 turning: 0  stop_vehicle: 0
12:39:13.215 -> GOING FORWARD
12:39:13.285 -> new meas 99 800 turning: 0  stop_vehicle: 0
12:39:13.285 -> GOING FORWARD
12:39:13.354 -> new meas 99 800 turning: 0  stop_vehicle: 0
12:39:13.354 -> GOING FORWARD
12:39:13.388 -> new meas 99 800 turning: 0  stop_vehicle: 0
12:39:13.388 -> GOING FORWARD
12:39:13.458 -> new meas 100 800 turning: 0  stop_vehicle: 0
12:39:13.458 -> GOING FORWARD
12:39:13.528 -> new meas 99 800 turning: 0  stop_vehicle: 0
12:39:13.528 -> GOING FORWARD
12:39:13.598 -> new meas 99 800 turning: 0  stop_vehicle: 0
12:39:13.598 -> GOING FORWARD
12:39:13.632 -> new meas 100 800 turning: 0  stop_vehicle: 0
12:39:13.632 -> GOING FORWARD
12:39:13.701 -> new meas 100 800 turning: 0  stop_vehicle: 0
12:39:13.701 -> GOING FORWARD
12:39:13.770 -> new meas 100 800 turning: 0  stop_vehicle: 0
12:39:13.770 -> GOING FORWARD
12:39:13.805 -> new meas 100 800 turning: 0  stop_vehicle: 0
12:39:13.840 -> GOING FORWARD
12:39:13.875 -> new meas 100 800 turning: 0  stop_vehicle: 0
12:39:13.875 -> GOING FORWARD
12:39:13.944 -> new meas 100 800 turning: 0  stop_vehicle: 0
12:39:13.944 -> GOING FORWARD
12:39:14.013 -> new meas 100 800 turning: 0  stop_vehicle: 0
12:39:14.013 -> GOING FORWARD
12:39:14.048 -> new meas 100 800 turning: 0  stop_vehicle: 0
12:39:14.048 -> GOING FORWARD
12:39:14.118 -> new meas 100 800 turning: 0  stop_vehicle: 0
12:39:14.118 -> GOING FORWARD
12:39:14.188 -> new meas 99 800 turning: 0  stop_vehicle: 0
12:39:14.188 -> GOING FORWARD
12:39:14.258 -> new meas 100 800 turning: 0  stop_vehicle: 0
12:39:14.258 -> GOING FORWARD
12:39:14.293 -> new meas 100 800 turning: 0  stop_vehicle: 0
12:39:14.293 -> GOING FORWARD
12:39:14.362 -> new meas 100 800 turning: 0  stop_vehicle: 0
12:39:14.362 -> GOING FORWARD
12:39:14.432 -> new meas 100 800 turning: 0  stop_vehicle: 0
12:39:14.432 -> GOING FORWARD
12:39:14.467 -> new meas 100 800 turning: 0  stop_vehicle: 0
12:39:14.467 -> GOING FORWARD
12:39:14.537 -> new meas 100 800 turning: 0  stop_vehicle: 0
12:39:14.537 -> GOING FORWARD
12:39:14.605 -> new meas 100 800 turning: 0  stop_vehicle: 0
12:39:14.605 -> GOING FORWARD
12:39:14.674 -> new meas 100 800 turning: 0  stop_vehicle: 0
12:39:14.674 -> GOING FORWARD
12:39:14.709 -> new meas 100 800 turning: 0  stop_vehicle: 0
12:39:14.709 -> GOING FORWARD
12:39:14.778 -> new meas 101 800 turning: 0  stop_vehicle: 0
12:39:14.778 -> GOING FORWARD
12:39:14.847 -> new meas 101 800 turning: 0  stop_vehicle: 0
12:39:14.847 -> GOING FORWARD
12:39:14.917 -> new meas 102 800 turning: 0  stop_vehicle: 0
12:39:14.917 -> GOING FORWARD
12:39:14.952 -> new meas 103 800 turning: 0  stop_vehicle: 0
12:39:14.952 -> GOING FORWARD
12:39:15.021 -> new meas 104 800 turning: 0  stop_vehicle: 0
12:39:15.021 -> GOING FORWARD
12:39:15.091 -> new meas 104 800 turning: 0  stop_vehicle: 0
12:39:15.091 -> GOING FORWARD
12:39:15.126 -> new meas 105 800 turning: 0  stop_vehicle: 0
12:39:15.126 -> GOING FORWARD
12:39:15.196 -> new meas 106 800 turning: 0  stop_vehicle: 0
12:39:15.196 -> GOING FORWARD
12:39:15.266 -> new meas 107 800 turning: 0  stop_vehicle: 0
12:39:15.266 -> GOING FORWARD
12:39:15.336 -> new meas 107 800 turning: 0  stop_vehicle: 0
12:39:15.336 -> GOING FORWARD
12:39:15.370 -> new meas 108 800 turning: 0  stop_vehicle: 0
12:39:15.370 -> GOING FORWARD
12:39:15.438 -> new meas 108 800 turning: 0  stop_vehicle: 0
12:39:15.438 -> GOING FORWARD
12:39:15.508 -> new meas 109 800 turning: 0  stop_vehicle: 0
12:39:15.508 -> GOING FORWARD
12:39:15.577 -> new meas 109 800 turning: 0  stop_vehicle: 0
12:39:15.577 -> GOING FORWARD
12:39:15.610 -> new meas 109 800 turning: 0  stop_vehicle: 0
12:39:15.610 -> GOING FORWARD
12:39:15.680 -> new meas 109 800 turning: 0  stop_vehicle: 0
12:39:15.680 -> GOING FORWARD
12:39:15.748 -> new meas 109 800 turning: 0  stop_vehicle: 0
12:39:15.748 -> GOING FORWARD
12:39:15.818 -> new meas 109 800 turning: 0  stop_vehicle: 0
12:39:15.818 -> GOING FORWARD
12:39:15.853 -> new meas 109 800 turning: 0  stop_vehicle: 0
12:39:15.853 -> GOING FORWARD
12:39:15.920 -> new meas 109 800 turning: 0  stop_vehicle: 0
12:39:15.920 -> GOING FORWARD
12:39:15.990 -> new meas 109 800 turning: 0  stop_vehicle: 0
12:39:15.990 -> GOING FORWARD
12:39:16.025 -> new meas 109 800 turning: 0  stop_vehicle: 0
12:39:16.060 -> GOING FORWARD
12:39:16.095 -> new meas 109 800 turning: 0  stop_vehicle: 0
12:39:16.095 -> GOING FORWARD
12:39:16.164 -> new meas 109 800 turning: 0  stop_vehicle: 0
12:39:16.164 -> GOING FORWARD
12:39:16.233 -> new meas 109 800 turning: 0  stop_vehicle: 0
12:39:16.233 -> GOING FORWARD
12:39:16.268 -> new meas 109 800 turning: 0  stop_vehicle: 0
12:39:16.268 -> GOING FORWARD
12:39:16.338 -> new meas 109 800 turning: 0  stop_vehicle: 0
12:39:16.338 -> GOING FORWARD
12:39:16.408 -> new meas 109 800 turning: 0  stop_vehicle: 0
12:39:16.408 -> GOING FORWARD
12:39:16.478 -> new meas 109 800 turning: 0  stop_vehicle: 0
12:39:16.478 -> GOING FORWARD
12:39:16.513 -> new meas 108 800 turning: 0  stop_vehicle: 0
12:39:16.513 -> GOING FORWARD
12:39:16.583 -> new meas 108 800 turning: 0  stop_vehicle: 0
12:39:16.583 -> GOING FORWARD
12:39:16.653 -> new meas 108 800 turning: 0  stop_vehicle: 0
12:39:16.653 -> GOING FORWARD
12:39:16.688 -> new meas 108 800 turning: 0  stop_vehicle: 0
12:39:16.688 -> GOING FORWARD
